INDEX VERSION 1.130+E:\FSD56\module3\3.SpringBoot\Workspace2\.metadata\.plugins\org.eclipse.jdt.core
2205283528.index
1448965666.index
2976366706.index
1946725198.index
895354549.index
1855209777.index
1554858752.index
330675108.index
4237295300.index
1760291760.index
4138326577.index
1809509996.index
1397241667.index
3453137351.index
2953167439.index
3348520720.index
816301338.index
1732970415.index
4250701349.index
219078148.index
3411830870.index
3115908976.index
2426695179.index
1791951750.index
3414132993.index
4154823351.index
3869426758.index
2066830214.index
3704559729.index
3029170720.index
2355779457.index
1227425061.index
1007222096.index
3844365732.index
3848016217.index
655499687.index
177314648.index
2913933002.index
136344506.index
532734100.index
3130698271.index
255504241.index
3264804928.index
376536928.index
1023734094.index
1642235014.index
542153213.index
2895513349.index
288452988.index
3628381189.index
1675393828.index
2885606711.index
2507423472.index
1662489095.index
2032195867.index
741359859.index
666342171.index
908409589.index
2673579554.index
3780791785.index
1834064492.index
1071640261.index
4259073463.index
863524301.index
3881292443.index
3171500132.index
545417040.index
2950742426.index
2246381242.index
2669203226.index
4080890769.index
3872679038.index
3538811489.index
2201439134.index
779843570.index
3716232716.index
3995011240.index
3307208897.index
1128276520.index
3700778642.index
1045536871.index
3040837599.index
99159599.index
3364622863.index
3642820579.index
674573568.index
1961815414.index
697164339.index
1442858637.index
3644761064.index
3782652062.index
103378668.index
1716342468.index
1695206781.index
4106237474.index
4135958314.index
2861667611.index
1956904976.index
2693510040.index
2927558532.index
411227453.index
2715625184.index
3857626909.index
