127.0.0.1 - - [08/Jan/2024:14:52:51 +0530] "GET / HTTP/1.1" 404 751
0:0:0:0:0:0:0:1 - - [08/Jan/2024:14:52:52 +0530] "GET /EmpWebApp/Login.html HTTP/1.1" 200 619
0:0:0:0:0:0:0:1 - - [08/Jan/2024:14:53:00 +0530] "POST /EmpWebApp/LoginServlet HTTP/1.1" 200 348
0:0:0:0:0:0:0:1 - - [08/Jan/2024:14:53:04 +0530] "GET /EmpWebApp/GetAllEmps HTTP/1.1" 200 1117
0:0:0:0:0:0:0:1 - - [08/Jan/2024:14:53:08 +0530] "GET /EmpWebApp/GetEmpById.html HTTP/1.1" 200 403
0:0:0:0:0:0:0:1 - - [08/Jan/2024:14:53:11 +0530] "POST /EmpWebApp/GetEmpById HTTP/1.1" 200 599
0:0:0:0:0:0:0:1 - - [08/Jan/2024:14:53:14 +0530] "GET /EmpWebApp/Logout HTTP/1.1" 200 619
127.0.0.1 - - [08/Jan/2024:15:01:14 +0530] "GET / HTTP/1.1" 404 751
0:0:0:0:0:0:0:1 - - [08/Jan/2024:15:01:30 +0530] "POST /EmpWebApp/LoginServlet HTTP/1.1" 200 252
0:0:0:0:0:0:0:1 - - [08/Jan/2024:15:02:38 +0530] "POST /EmpWebApp/LoginServlet HTTP/1.1" 200 252
0:0:0:0:0:0:0:1 - - [08/Jan/2024:15:04:03 +0530] "POST /EmpWebApp/LoginServlet HTTP/1.1" 200 292
0:0:0:0:0:0:0:1 - - [08/Jan/2024:15:04:05 +0530] "GET /EmpWebApp/Profile HTTP/1.1" 200 570
127.0.0.1 - - [08/Jan/2024:16:07:55 +0530] "GET / HTTP/1.1" 404 751
0:0:0:0:0:0:0:1 - - [08/Jan/2024:16:07:56 +0530] "GET /EmpWebApp/Login.html HTTP/1.1" 200 619
0:0:0:0:0:0:0:1 - - [08/Jan/2024:16:08:08 +0530] "POST /EmpWebApp/LoginServlet HTTP/1.1" 200 658
0:0:0:0:0:0:0:1 - - [08/Jan/2024:16:08:11 +0530] "GET /EmpWebApp/GetAllEmps HTTP/1.1" 200 1117
0:0:0:0:0:0:0:1 - - [08/Jan/2024:16:08:13 +0530] "GET /EmpWebApp/GetEmpById.html HTTP/1.1" 200 403
0:0:0:0:0:0:0:1 - - [08/Jan/2024:16:08:17 +0530] "POST /EmpWebApp/GetEmpById HTTP/1.1" 200 909
0:0:0:0:0:0:0:1 - - [08/Jan/2024:16:08:19 +0530] "GET /EmpWebApp/HRHomePage.jsp HTTP/1.1" 200 658
0:0:0:0:0:0:0:1 - - [08/Jan/2024:16:08:37 +0530] "GET /EmpWebApp/HRHomePage.jsp HTTP/1.1" 200 658
0:0:0:0:0:0:0:1 - - [08/Jan/2024:16:08:38 +0530] "GET /EmpWebApp/Logout HTTP/1.1" 200 619
127.0.0.1 - - [08/Jan/2024:17:27:07 +0530] "GET / HTTP/1.1" 404 751
0:0:0:0:0:0:0:1 - - [08/Jan/2024:17:27:13 +0530] "POST /EmpWebApp/LoginServlet HTTP/1.1" 200 654
0:0:0:0:0:0:0:1 - - [08/Jan/2024:17:27:17 +0530] "GET /EmpWebApp/GetAllEmps HTTP/1.1" 200 1423
0:0:0:0:0:0:0:1 - - [08/Jan/2024:17:27:22 +0530] "POST /EmpWebApp/GetEmpById HTTP/1.1" 200 905
0:0:0:0:0:0:0:1 - - [08/Jan/2024:17:27:32 +0530] "POST /EmpWebApp/LoginServlet HTTP/1.1" 200 593
0:0:0:0:0:0:0:1 - - [08/Jan/2024:17:27:35 +0530] "GET /EmpWebApp/Profile HTTP/1.1" 200 871
127.0.0.1 - - [08/Jan/2024:18:08:38 +0530] "GET / HTTP/1.1" 404 751
0:0:0:0:0:0:0:1 - - [08/Jan/2024:18:08:44 +0530] "POST /EmpWebApp/LoginServlet HTTP/1.1" 200 654
0:0:0:0:0:0:0:1 - - [08/Jan/2024:18:08:49 +0530] "GET /EmpWebApp/GetAllEmps HTTP/1.1" 200 2013
0:0:0:0:0:0:0:1 - - [08/Jan/2024:18:08:49 +0530] "GET /EmpWebApp/GetAllEmps HTTP/1.1" 200 2013
0:0:0:0:0:0:0:1 - - [08/Jan/2024:18:08:55 +0530] "POST /EmpWebApp/GetEmpById HTTP/1.1" 200 733
0:0:0:0:0:0:0:1 - - [08/Jan/2024:18:09:01 +0530] "POST /EmpWebApp/GetEmpById HTTP/1.1" 200 733
0:0:0:0:0:0:0:1 - - [08/Jan/2024:18:09:03 +0530] "GET /EmpWebApp/GetAllEmps HTTP/1.1" 200 2013
0:0:0:0:0:0:0:1 - - [08/Jan/2024:18:09:08 +0530] "POST /EmpWebApp/GetEmpById HTTP/1.1" 200 905
0:0:0:0:0:0:0:1 - - [08/Jan/2024:18:09:13 +0530] "POST /EmpWebApp/GetEmpById HTTP/1.1" 200 733
0:0:0:0:0:0:0:1 - - [08/Jan/2024:18:09:15 +0530] "GET /EmpWebApp/GetAllEmps HTTP/1.1" 200 2013
0:0:0:0:0:0:0:1 - - [08/Jan/2024:18:09:23 +0530] "POST /EmpWebApp/GetEmpById HTTP/1.1" 200 905
0:0:0:0:0:0:0:1 - - [08/Jan/2024:18:09:30 +0530] "POST /EmpWebApp/GetEmpById HTTP/1.1" 200 733
0:0:0:0:0:0:0:1 - - [08/Jan/2024:18:09:35 +0530] "GET /EmpWebApp/GetAllEmps HTTP/1.1" 200 2013
0:0:0:0:0:0:0:1 - - [08/Jan/2024:18:09:46 +0530] "POST /EmpWebApp/GetEmpById HTTP/1.1" 200 733
0:0:0:0:0:0:0:1 - - [08/Jan/2024:18:09:54 +0530] "POST /EmpWebApp/GetEmpById HTTP/1.1" 200 905
127.0.0.1 - - [08/Jan/2024:18:11:24 +0530] "GET / HTTP/1.1" 404 751
0:0:0:0:0:0:0:1 - - [08/Jan/2024:18:11:30 +0530] "POST /EmpWebApp/LoginServlet HTTP/1.1" 200 654
0:0:0:0:0:0:0:1 - - [08/Jan/2024:18:11:35 +0530] "POST /EmpWebApp/GetEmpById HTTP/1.1" 200 907
0:0:0:0:0:0:0:1 - - [08/Jan/2024:18:19:05 +0530] "GET /EmpWebApp/Logout HTTP/1.1" 304 -
0:0:0:0:0:0:0:1 - - [08/Jan/2024:18:19:09 +0530] "GET /EmpWebApp HTTP/1.1" 302 -
0:0:0:0:0:0:0:1 - - [08/Jan/2024:18:19:09 +0530] "GET /EmpWebApp/ HTTP/1.1" 404 765
0:0:0:0:0:0:0:1 - - [08/Jan/2024:18:19:15 +0530] "GET /EmpWebApp/Register.html HTTP/1.1" 200 1039
127.0.0.1 - - [08/Jan/2024:18:32:52 +0530] "GET / HTTP/1.1" 404 751
0:0:0:0:0:0:0:1 - - [08/Jan/2024:18:33:02 +0530] "POST /EmpWebApp/LoginServlet HTTP/1.1" 200 668
0:0:0:0:0:0:0:1 - - [08/Jan/2024:18:33:04 +0530] "GET /EmpWebApp/GetAllEmps HTTP/1.1" 200 2027
0:0:0:0:0:0:0:1 - - [08/Jan/2024:18:33:12 +0530] "GET /EmpWebApp/GetEmpById.jsp HTTP/1.1" 200 1212
0:0:0:0:0:0:0:1 - - [08/Jan/2024:18:33:16 +0530] "GET /EmpWebApp/GetEmpById.jsp?empId=106 HTTP/1.1" 200 1212
0:0:0:0:0:0:0:1 - - [08/Jan/2024:18:33:21 +0530] "GET /EmpWebApp/GetEmpById.jsp?empId=106 HTTP/1.1" 200 1212
0:0:0:0:0:0:0:1 - - [08/Jan/2024:18:33:26 +0530] "GET /EmpWebApp/GetEmpById.jsp?empId=105 HTTP/1.1" 200 1212
0:0:0:0:0:0:0:1 - - [08/Jan/2024:18:34:28 +0530] "GET /EmpWebApp/GetEmpById.jsp?empId=105 HTTP/1.1" 200 1212
0:0:0:0:0:0:0:1 - - [08/Jan/2024:18:34:33 +0530] "GET /EmpWebApp/GetEmpById.jsp?empId=106 HTTP/1.1" 200 1212
0:0:0:0:0:0:0:1 - - [08/Jan/2024:18:34:34 +0530] "GET /EmpWebApp/GetEmpById.jsp?empId= HTTP/1.1" 200 1212
0:0:0:0:0:0:0:1 - - [08/Jan/2024:18:34:34 +0530] "GET /EmpWebApp/GetEmpById.jsp?empId= HTTP/1.1" 200 1212
0:0:0:0:0:0:0:1 - - [08/Jan/2024:18:34:34 +0530] "GET /EmpWebApp/GetEmpById.jsp?empId= HTTP/1.1" 200 1212
0:0:0:0:0:0:0:1 - - [08/Jan/2024:18:34:36 +0530] "GET /EmpWebApp/GetAllEmps HTTP/1.1" 200 2027
127.0.0.1 - - [08/Jan/2024:18:35:29 +0530] "GET / HTTP/1.1" 404 751
0:0:0:0:0:0:0:1 - - [08/Jan/2024:18:35:30 +0530] "GET /EmpWebApp/GetEmpById.jsp HTTP/1.1" 500 2386
0:0:0:0:0:0:0:1 - - [08/Jan/2024:18:37:24 +0530] "POST /EmpWebApp/LoginServlet HTTP/1.1" 200 668
0:0:0:0:0:0:0:1 - - [08/Jan/2024:18:37:26 +0530] "GET /EmpWebApp/GetEmpById.jsp HTTP/1.1" 404 744
0:0:0:0:0:0:0:1 - - [08/Jan/2024:18:38:26 +0530] "POST /EmpWebApp/LoginServlet HTTP/1.1" 200 668
0:0:0:0:0:0:0:1 - - [08/Jan/2024:18:38:28 +0530] "GET /EmpWebApp/GetEmpById.jsp HTTP/1.1" 200 1210
0:0:0:0:0:0:0:1 - - [08/Jan/2024:18:38:31 +0530] "GET /EmpWebApp/GetEmpById.jsp?empId=106 HTTP/1.1" 200 1210
0:0:0:0:0:0:0:1 - - [08/Jan/2024:18:38:35 +0530] "GET /EmpWebApp/GetAllEmps HTTP/1.1" 200 2027
